^C:\USERS\ZPAUL\DOCUMENTS\UNIVERSIDADE\3ANO\2ºSEMESTRE\SISTEMAS_DISTRIBUIDOS\AULA01_TRABALHO\SERVER\SERVER\DEBUG\SERVER.OBJ
/OUT:"C:\USERS\ZPAUL\DOCUMENTS\UNIVERSIDADE\3ANO\2ºSEMESTRE\SISTEMAS_DISTRIBUIDOS\AULA01_TRABALHO\SERVER\DEBUG\SERVER.EXE" /INCREMENTAL /NOLOGO KERNEL32.LIB USER32.LIB GDI32.LIB WINSPOOL.LIB COMDLG32.LIB ADVAPI32.LIB SHELL32.LIB OLE32.LIB OLEAUT32.LIB UUID.LIB ODBC32.LIB ODBCCP32.LIB /MANIFEST /MANIFESTUAC:"level='asInvoker' uiAccess='false'" /manifest:embed /DEBUG:FASTLINK /PDB:"C:\USERS\ZPAUL\DOCUMENTS\UNIVERSIDADE\3ANO\2ºSEMESTRE\SISTEMAS_DISTRIBUIDOS\AULA01_TRABALHO\SERVER\DEBUG\SERVER.PDB" /SUBSYSTEM:CONSOLE /TLBID:1 /DYNAMICBASE /NXCOMPAT /IMPLIB:"C:\USERS\ZPAUL\DOCUMENTS\UNIVERSIDADE\3ANO\2ºSEMESTRE\SISTEMAS_DISTRIBUIDOS\AULA01_TRABALHO\SERVER\DEBUG\SERVER.LIB" /MACHINE:X86 DEBUG\SERVER.OBJ
^C:\USERS\ZPAUL\DOCUMENTS\UNIVERSIDADE\3ANO\2ºSEMESTRE\SISTEMAS_DISTRIBUIDOS\TRABALHO02\SERVER\SERVER\DEBUG\SERVER.OBJ
/OUT:"C:\USERS\ZPAUL\DOCUMENTS\UNIVERSIDADE\3ANO\2ºSEMESTRE\SISTEMAS_DISTRIBUIDOS\TRABALHO02\SERVER\DEBUG\SERVER.EXE" /INCREMENTAL /NOLOGO /LIBPATH:"C:\LIBRARIES_C_C++\VCPKG\INSTALLED\X86-WINDOWS\DEBUG\LIB" /LIBPATH:"C:\LIBRARIES_C_C++\VCPKG\INSTALLED\X86-WINDOWS\DEBUG\LIB\MANUAL-LINK" KERNEL32.LIB USER32.LIB GDI32.LIB WINSPOOL.LIB COMDLG32.LIB ADVAPI32.LIB SHELL32.LIB OLE32.LIB OLEAUT32.LIB UUID.LIB ODBC32.LIB ODBCCP32.LIB "C:\LIBRARIES_C_C++\VCPKG\INSTALLED\X86-WINDOWS\DEBUG\LIB\*.LIB" /MANIFEST /MANIFESTUAC:"level='asInvoker' uiAccess='false'" /manifest:embed /DEBUG:FASTLINK /PDB:"C:\USERS\ZPAUL\DOCUMENTS\UNIVERSIDADE\3ANO\2ºSEMESTRE\SISTEMAS_DISTRIBUIDOS\TRABALHO02\SERVER\DEBUG\SERVER.PDB" /SUBSYSTEM:CONSOLE /TLBID:1 /DYNAMICBASE /NXCOMPAT /IMPLIB:"C:\USERS\ZPAUL\DOCUMENTS\UNIVERSIDADE\3ANO\2ºSEMESTRE\SISTEMAS_DISTRIBUIDOS\TRABALHO02\SERVER\DEBUG\SERVER.LIB" /MACHINE:X86 DEBUG\SERVER.OBJ
